<!--?xml version='1.0' encoding='UTF-8'?-->
<!-- This file was generated by dvisvgm 2.11.1 -->
<svg version="1.1" xmlns="http://www.w3.org/2000/svg" xmlns:xlink="http://www.w3.org/1999/xlink" width="494.097pt" viewBox="305.22 295.641 494.097 491.773" class="mw-100">
<defs>
<path id="g0-45" d="M3.239851-2.307347V-3.000747H.131507V-2.307347H3.239851Z"></path>
<path id="g0-46" d="M2.10411-.968369H1.135741V0H2.10411V-.968369Z"></path>
<path id="g0-65" d="M4.387547-8.296887H3.335492L.32279 0H1.207472L2.080199-2.426899H5.451557L6.336239 0H7.400249L4.387547-8.296887ZM3.765878-7.436115L5.200498-3.096389H2.343213L3.765878-7.436115Z"></path>
<path id="g0-66" d="M1.111831-8.296887V0H4.196264C5.881943 0 7.113325-1.075965 7.113325-2.247572C7.113325-3.299626 6.073225-4.148443 4.841843-4.339726C6.240598-4.722291 6.77858-5.523288 6.77858-6.216687C6.77858-7.292653 5.559153-8.296887 3.873474-8.296887H1.111831ZM2.080199-4.674471V-7.627397H3.550685C4.829888-7.627397 5.858032-6.993773 5.858032-6.204732C5.858032-5.36787 4.829888-4.674471 3.56264-4.674471H2.080199ZM2.080199-.669489V-3.957161H3.670237C5.212453-3.957161 6.168867-3.096389 6.168867-2.259527S5.200498-.669489 3.861519-.669489H2.080199Z"></path>
<path id="g0-70" d="M5.654795-3.777833V-4.495143H2.10411V-7.531756H3.646326C3.789788-7.531756 3.93325-7.519801 4.076712-7.519801H6.144956V-8.272976H1.075965V0H2.10411V-3.777833H5.654795Z"></path>
<path id="g0-72" d="M7.113325-8.296887H6.085181V-4.674471H2.10411V-8.296887H1.075965V0H2.10411V-3.957161H6.085181V0H7.113325V-8.296887Z"></path>
<path id="g0-74" d="M4.531009-8.296887H3.526775V-1.817186C3.526775-1.123786 3.19203-.490162 2.139975-.490162C1.470486-.490162 .956413-.800996 .657534-1.147696L.490162-.251059C1.183562 .107597 1.853051 .251059 2.486675 .251059C3.741968 .251059 4.531009-.490162 4.531009-1.769365V-8.296887Z"></path>
<path id="g0-75" d="M4.27995-5.009215L7.400249-8.296887H6.276463L2.092154-3.88543V-8.296887H1.08792V0H2.092154V-2.701868L3.634371-4.327771L6.455791 0H7.555666L4.27995-5.009215Z"></path>
<path id="g0-77" d="M2.49863-8.296887H1.135741V0H2.056289V-7.376339H2.068244C2.235616-6.563387 4.172354-1.446575 4.62665-.251059H5.499377C5.893898-1.279203 7.866501-6.491656 8.081694-7.388294H8.093649V0H9.014197V-8.296887H7.651308L6.288418-4.614695C5.66675-2.940971 5.200498-1.685679 5.080946-1.135741H5.068991C5.033126-1.338979 4.877709-1.78132 4.722291-2.247572C4.507098-2.893151 4.507098-2.917061 4.315816-3.407223L2.49863-8.296887Z"></path>
<path id="g0-80" d="M4.004981-3.455044C5.654795-3.455044 6.790535-4.638605 6.790535-5.881943C6.790535-7.149191 5.630884-8.296887 4.004981-8.296887H1.08792V0H2.116065V-3.455044H4.004981ZM3.753923-7.627397C5.152677-7.627397 5.846077-6.790535 5.846077-5.893898C5.846077-4.94944 5.116812-4.148443 3.753923-4.148443H2.092154V-7.627397H3.753923Z"></path>
<path id="g0-82" d="M4.865753-3.897385C6.168867-4.267995 6.874222-5.176588 6.874222-6.06127C6.874222-7.256787 5.595019-8.296887 3.90934-8.296887H1.08792V0H2.092154V-3.789788H3.957161L6.168867 0H7.197011L4.865753-3.897385ZM2.092154-4.507098V-7.627397H3.777833C5.224408-7.627397 5.929763-6.862267 5.929763-6.06127C5.929763-5.32005 5.284184-4.507098 3.777833-4.507098H2.092154Z"></path>
<path id="g0-83" d="M5.439601-7.962142C4.94944-8.225156 4.351681-8.547945 3.287671-8.547945C1.685679-8.547945 .645579-7.400249 .645579-6.204732C.645579-5.355915 1.159651-4.805978 1.219427-4.746202C1.80523-4.148443 2.211706-4.040847 2.976837-3.849564C3.993026-3.598506 4.160399-3.550685 4.542964-3.156164C4.746202-2.940971 4.925529-2.558406 4.925529-2.139975C4.925529-1.315068 4.244085-.549938 3.21594-.549938C2.343213-.549938 1.41071-.896638 .705355-1.542217L.526027-.573848C1.613948 .143462 2.666002 .251059 3.21594 .251059C4.758157 .251059 5.846077-.932503 5.846077-2.259527C5.846077-3.024658 5.475467-3.598506 5.212453-3.897385C4.662516-4.483188 4.220174-4.60274 3.419178-4.805978C2.606227-5.009215 2.307347-5.080946 2.044334-5.332005C1.888917-5.499377 1.566127-5.798257 1.566127-6.336239C1.566127-7.065504 2.223661-7.770859 3.275716-7.770859C4.291905-7.770859 4.829888-7.376339 5.260274-6.993773L5.439601-7.962142Z"></path>
<path id="g0-84" d="M4.507098-7.49589H5.559153C5.702615-7.49589 5.846077-7.483935 5.989539-7.483935H7.555666V-8.237111H.418431V-7.483935H1.996513C2.139975-7.483935 2.283437-7.49589 2.426899-7.49589H3.478954V0H4.507098V-7.49589Z"></path>
<path id="g0-87" d="M10.807472-8.296887H9.934745L8.846824-4.375592L8.368618-2.606227C8.2132-2.032379 8.033873-1.338979 7.986052-.908593H7.974097C7.914321-1.41071 7.651308-2.438854 7.44807-3.156164L6.03736-8.296887H5.021171L3.993026-4.590785C3.90934-4.303861 3.19203-1.697634 3.108344-.920548H3.096389C3.048568-1.3868 2.749689-2.546451 2.701868-2.749689L2.187796-4.662516L1.183562-8.296887H.167372L2.510585 0H3.502864L4.62665-4.064757C4.925529-5.128767 5.379826-6.766625 5.451557-7.400249H5.463512C5.463512-7.388294 5.547198-6.77858 6.109091-4.734247L7.412204 0H8.464259L10.807472-8.296887Z"></path>
<path id="g0-97" d="M4.674471-3.502864C4.674471-4.65056 3.849564-5.487422 2.737733-5.487422C2.020423-5.487422 1.482441-5.32005 .896638-4.985305L.968369-4.196264C1.494396-4.578829 2.044334-4.794022 2.737733-4.794022C3.287671-4.794022 3.765878-4.351681 3.765878-3.478954V-2.988792C3.227895-2.964882 2.510585-2.929016 1.793275-2.689913C.992279-2.414944 .526027-1.972603 .526027-1.374844C.526027-.848817 .836862 .119552 1.853051 .119552C2.510585 .119552 3.347447-.071731 3.789788-.442341V0H4.674471V-3.502864ZM3.765878-1.601993C3.765878-1.362889 3.765878-1.075965 3.371357-.836862C3.048568-.633624 2.642092-.597758 2.462765-.597758C1.817186-.597758 1.374844-.944458 1.374844-1.3868C1.374844-2.199751 3.036613-2.379078 3.765878-2.379078V-1.601993Z"></path>
<path id="g0-98" d="M1.817186-8.296887H.932503V0H1.841096V-.537983C2.391034-.011955 2.976837 .119552 3.395268 .119552C4.531009 .119552 5.571108-1.0401 5.571108-2.666002C5.571108-4.136488 4.782067-5.427646 3.670237-5.427646C3.323537-5.427646 2.558406-5.355915 1.817186-4.758157V-8.296887ZM1.841096-4.028892C2.056289-4.363636 2.486675-4.710336 3.072478-4.710336C3.801743-4.710336 4.662516-4.160399 4.662516-2.666002C4.662516-1.111831 3.682192-.597758 2.952927-.597758C2.618182-.597758 2.391034-.71731 2.175841-.884682C1.888917-1.135741 1.841096-1.350934 1.841096-1.554172V-4.028892Z"></path>
<path id="g0-99" d="M4.794022-1.291158C4.244085-.848817 3.634371-.621669 2.964882-.621669C1.972603-.621669 1.327024-1.506351 1.327024-2.666002C1.327024-3.658281 1.80523-4.746202 3.000747-4.746202C3.801743-4.746202 4.136488-4.554919 4.65056-4.208219L4.794022-4.985305C4.100623-5.391781 3.706102-5.487422 3.000747-5.487422C1.350934-5.487422 .418431-4.028892 .418431-2.666002C.418431-1.135741 1.518306 .119552 2.952927 .119552C3.53873 .119552 4.208219-.02391 4.865753-.502117C4.865753-.537983 4.829888-.908593 4.817933-.956413L4.794022-1.291158Z"></path>
<path id="g0-100" d="M5.057036-8.296887H4.172354V-4.805978C3.622416-5.260274 3.000747-5.427646 2.486675-5.427646C1.350934-5.427646 .418431-4.208219 .418431-2.654047C.418431-1.111831 1.303113 .119552 2.438854 .119552C2.881196 .119552 3.550685-.02391 4.148443-.609714V0H5.057036V-8.296887ZM4.148443-1.41071C3.861519-.896638 3.443088-.597758 2.917061-.597758C2.187796-.597758 1.327024-1.159651 1.327024-2.642092C1.327024-4.23213 2.343213-4.710336 3.036613-4.710336C3.502864-4.710336 3.88543-4.471233 4.148443-4.076712V-1.41071Z"></path>
<path id="g0-101" d="M4.865753-2.689913C4.865753-3.203985 4.817933-3.93325 4.435367-4.566874C3.945205-5.391781 3.108344-5.487422 2.761644-5.487422C1.470486-5.487422 .394521-4.244085 .394521-2.689913C.394521-1.111831 1.542217 .119552 2.929016 .119552C3.478954 .119552 4.136488-.035866 4.794022-.514072C4.794022-.561893 4.758157-.932503 4.758157-.956413C4.746202-.968369 4.722291-1.231382 4.722291-1.279203C4.016936-.681445 3.311582-.597758 2.952927-.597758C2.032379-.597758 1.243337-1.422665 1.219427-2.689913H4.865753ZM1.291158-3.335492C1.494396-4.136488 2.056289-4.770112 2.761644-4.770112C3.132254-4.770112 3.957161-4.60274 4.160399-3.335492H1.291158Z"></path>
<path id="g0-103" d="M4.076712-4.710336C4.076712-4.710336 4.100623-4.686426 4.112578-4.662516C4.363636-4.686426 4.62665-4.722291 5.068991-4.722291C5.104857-4.722291 5.379826-4.722291 5.678705-4.698381L5.547198-5.427646C5.32005-5.427646 4.507098-5.415691 3.718057-5.033126C3.323537-5.36787 2.84533-5.427646 2.606227-5.427646C1.566127-5.427646 .729265-4.554919 .729265-3.502864C.729265-3.072478 .860772-2.677958 1.123786-2.319303C.848817-1.936737 .777086-1.578082 .777086-1.291158C.777086-.848817 .944458-.549938 1.075965-.394521C.466252 0 .32279 .514072 .32279 .848817C.32279 1.721544 1.458531 2.450809 2.917061 2.450809S5.523288 1.745455 5.523288 .836862C5.523288-.836862 3.58655-.836862 3.096389-.836862H2.080199C1.912827-.836862 1.398755-.836862 1.398755-1.470486C1.398755-1.733499 1.446575-1.80523 1.518306-1.912827C1.721544-1.769365 2.116065-1.566127 2.594271-1.566127C3.622416-1.566127 4.471233-2.414944 4.471233-3.502864C4.471233-3.93325 4.315816-4.375592 4.064757-4.698381L4.076712-4.710336ZM2.606227-2.223661C2.080199-2.223661 1.554172-2.582316 1.554172-3.490909C1.554172-4.554919 2.223661-4.770112 2.594271-4.770112C3.120299-4.770112 3.646326-4.411457 3.646326-3.502864C3.646326-2.438854 2.976837-2.223661 2.606227-2.223661ZM3.108344 .02391C3.371357 .02391 4.686426 .02391 4.686426 .848817C4.686426 1.398755 3.861519 1.793275 2.929016 1.793275S1.159651 1.422665 1.159651 .836862C1.159651 .800996 1.159651 .02391 2.068244 .02391H3.108344Z"></path>
<path id="g0-104" d="M5.068991-3.598506C5.068991-4.327771 4.913574-5.427646 3.466999-5.427646C2.642092-5.427646 2.092154-4.961395 1.80523-4.60274V-8.296887H.920548V0H1.829141V-2.976837C1.829141-3.718057 2.10411-4.710336 3.012702-4.710336C4.124533-4.710336 4.160399-3.93325 4.160399-3.514819V0H5.068991V-3.598506Z"></path>
<path id="g0-105" d="M1.888917-8.117559H.860772V-7.089415H1.888917V-8.117559ZM1.817186-5.308095H.932503V0H1.817186V-5.308095Z"></path>
<path id="g0-106" d="M2.139975-8.117559H1.111831V-7.089415H2.139975V-8.117559ZM-.74122 2.032379C-.358655 2.259527 .119552 2.438854 .669489 2.438854C1.422665 2.438854 2.139975 1.817186 2.139975 .705355V-5.308095H1.255293V.824907C1.255293 1.637858 .526027 1.685679 .3467 1.685679C-.119552 1.685679-.442341 1.446575-.561893 1.315068L-.74122 2.032379Z"></path>
<path id="g0-107" d="M3.251806-3.263761L5.212453-5.308095H4.112578L1.80523-2.905106V-8.296887H.932503V0H1.769365V-1.721544L2.677958-2.666002L4.495143 0H5.475467L3.251806-3.263761Z"></path>
<path id="g0-108" d="M1.817186-8.296887H.932503V0H1.817186V-8.296887Z"></path>
<path id="g0-109" d="M8.332752-3.598506C8.332752-4.423412 8.117559-5.427646 6.718804-5.427646C5.702615-5.427646 5.140722-4.722291 4.961395-4.459278C4.746202-5.212453 4.088667-5.427646 3.466999-5.427646C2.486675-5.427646 1.972603-4.794022 1.769365-4.542964V-5.36787H.920548V0H1.829141V-2.976837C1.829141-3.765878 2.139975-4.710336 3.012702-4.710336C4.112578-4.710336 4.172354-3.957161 4.172354-3.514819V0H5.080946V-2.976837C5.080946-3.765878 5.391781-4.710336 6.264508-4.710336C7.364384-4.710336 7.424159-3.957161 7.424159-3.514819V0H8.332752V-3.598506Z"></path>
<path id="g0-110" d="M5.068991-3.598506C5.068991-4.327771 4.913574-5.427646 3.466999-5.427646C2.797509-5.427646 2.223661-5.128767 1.769365-4.554919V-5.36787H.920548V0H1.829141V-2.976837C1.829141-3.718057 2.10411-4.710336 3.012702-4.710336C4.124533-4.710336 4.160399-3.93325 4.160399-3.514819V0H5.068991V-3.598506Z"></path>
<path id="g0-111" d="M5.487422-2.630137C5.487422-4.244085 4.303861-5.487422 2.929016-5.487422C1.518306-5.487422 .358655-4.220174 .358655-2.630137C.358655-1.06401 1.554172 .119552 2.917061 .119552C4.327771 .119552 5.487422-1.08792 5.487422-2.630137ZM2.929016-.621669C2.068244-.621669 1.267248-1.338979 1.267248-2.749689C1.267248-4.196264 2.163885-4.770112 2.917061-4.770112C3.741968-4.770112 4.578829-4.148443 4.578829-2.749689C4.578829-1.279203 3.730012-.621669 2.929016-.621669Z"></path>
<path id="g0-114" d="M1.817186-2.618182C1.817186-3.825654 2.725778-4.614695 3.801743-4.62665V-5.427646C2.713823-5.415691 2.080199-4.782067 1.75741-4.315816V-5.36787H.932503V0H1.817186V-2.618182Z"></path>
<path id="g0-115" d="M4.016936-5.116812C3.251806-5.475467 2.606227-5.487422 2.331258-5.487422S.394521-5.487422 .394521-3.93325C.394521-3.407223 .681445-3.048568 .860772-2.881196C1.291158-2.510585 1.590037-2.450809 2.295392-2.307347C2.689913-2.223661 3.383313-2.080199 3.383313-1.446575C3.383313-.621669 2.450809-.621669 2.283437-.621669C1.80523-.621669 1.111831-.753176 .466252-1.219427L.32279-.406476C.382565-.37061 1.195517 .119552 2.295392 .119552C3.837609 .119552 4.208219-.812951 4.208219-1.518306C4.208219-2.12802 3.837609-2.510585 3.789788-2.570361C3.347447-3.024658 2.988792-3.096389 2.259527-3.239851C1.829141-3.323537 1.219427-3.443088 1.219427-4.040847C1.219427-4.782067 2.056289-4.782067 2.211706-4.782067C2.84533-4.782067 3.347447-4.638605 3.873474-4.339726L4.016936-5.116812Z"></path>
<path id="g0-116" d="M2.044334-4.614695H3.694147V-5.308095H2.044334V-6.826401H1.219427V-5.308095H.215193V-4.614695H1.195517V-1.398755C1.195517-.705355 1.350934 .119552 2.175841 .119552C2.976837 .119552 3.526775-.155417 3.897385-.3467L3.718057-1.0401C3.299626-.669489 2.857285-.621669 2.642092-.621669C2.116065-.621669 2.044334-1.183562 2.044334-1.601993V-4.614695Z"></path>
<path id="g0-117" d="M5.068991-5.308095H4.160399V-1.888917C4.160399-.980324 3.526775-.537983 2.749689-.537983C1.912827-.537983 1.829141-.848817 1.829141-1.374844V-5.308095H.920548V-1.327024C.920548-.466252 1.195517 .119552 2.175841 .119552C2.510585 .119552 3.455044 .059776 4.184309-.597758V0H5.068991V-5.308095Z"></path>
<path id="g0-118" d="M5.176588-5.308095H4.27995L3.407223-2.929016C3.203985-2.355168 2.761644-1.08792 2.689913-.645579H2.677958C2.618182-1.06401 2.379078-1.721544 2.199751-2.235616L1.099875-5.308095H.167372L2.139975 0H3.203985L5.176588-5.308095Z"></path>
<path id="g0-121" d="M5.176588-5.308095H4.27995C3.730012-3.897385 2.809465-1.554172 2.761644-.6934H2.749689C2.689913-1.398755 2.056289-2.976837 1.960648-3.21594L1.111831-5.308095H.167372L2.391034 0L1.972603 1.08792C1.709589 1.685679 1.530262 1.745455 1.315068 1.745455C1.147696 1.745455 .765131 1.709589 .394521 1.566127L.466252 2.343213C.537983 2.355168 .932503 2.438854 1.315068 2.438854C1.601993 2.438854 2.163885 2.438854 2.677958 1.123786L5.176588-5.308095Z"></path>
<path id="g0-122" d="M4.662516-4.841843V-5.308095H.490162V-4.60274H2.10411C2.247572-4.60274 2.391034-4.614695 2.534496-4.614695H3.443088L.32279-.478207V0H4.698381V-.729265H2.988792C2.84533-.729265 2.701868-.71731 2.558406-.71731H1.542217L4.662516-4.841843Z"></path>
</defs>
<g id="page1">
<g transform="matrix(0.996264 0 0 0.996264 305.22 295.641)">
<path d="M 382.341 63.5074C 382.341 32.2819 357.027 6.96866 325.802 6.96866C 294.576 6.96866 269.263 32.2819 269.263 63.5074C 269.263 94.7329 294.576 120.046 325.802 120.046C 357.027 120.046 382.341 94.7329 382.341 63.5074Z" fill="#333333"></path>
</g>
<g fill="#e6e6e6">
<use x="593.348658" y="363.001978" xlink:href="#g0-65"></use>
<use x="601.08345" y="363.001978" xlink:href="#g0-109"></use>
<use x="610.340298" y="363.001978" xlink:href="#g0-97"></use>
<use x="615.944226" y="363.001978" xlink:href="#g0-110"></use>
<use x="621.949413" y="363.001978" xlink:href="#g0-100"></use>
<use x="627.954599" y="363.001978" xlink:href="#g0-97"></use>
<use x="637.460521" y="363.001978" xlink:href="#g0-66"></use>
<use x="645.229905" y="363.001978" xlink:href="#g0-114"></use>
<use x="649.208002" y="363.001978" xlink:href="#g0-111"></use>
<use x="655.386159" y="363.001978" xlink:href="#g0-99"></use>
<use x="660.588817" y="363.001978" xlink:href="#g0-107"></use>
</g>
<g transform="matrix(0.996264 0 0 0.996264 305.22 295.641)">
<path d="M 479.722 154.317C 479.722 123.092 454.409 97.7785 423.183 97.7785C 391.958 97.7785 366.645 123.092 366.645 154.317C 366.645 185.543 391.958 210.856 423.183 210.856C 454.409 210.856 479.722 185.543 479.722 154.317Z" fill="#333333"></path>
</g>
<g fill="#e6e6e6">
<use x="684.161993" y="452.3102" xlink:href="#g0-72"></use>
<use x="692.36725" y="452.3102" xlink:href="#g0-105"></use>
<use x="695.120775" y="452.3102" xlink:href="#g0-108"></use>
<use x="697.874301" y="452.3102" xlink:href="#g0-97"></use>
<use x="703.153062" y="452.3102" xlink:href="#g0-114"></use>
<use x="707.13116" y="452.3102" xlink:href="#g0-121"></use>
<use x="716.388008" y="452.3102" xlink:href="#g0-82"></use>
<use x="723.922159" y="452.3102" xlink:href="#g0-105"></use>
<use x="726.675685" y="452.3102" xlink:href="#g0-99"></use>
<use x="731.878343" y="452.3102" xlink:href="#g0-104"></use>
<use x="737.88353" y="452.3102" xlink:href="#g0-97"></use>
<use x="743.162291" y="452.3102" xlink:href="#g0-114"></use>
<use x="747.140389" y="452.3102" xlink:href="#g0-100"></use>
<use x="753.145576" y="452.3102" xlink:href="#g0-115"></use>
<use x="757.632868" y="452.3102" xlink:href="#g0-111"></use>
<use x="763.485858" y="452.3102" xlink:href="#g0-110"></use>
</g>
<g transform="matrix(0.996264 0 0 0.996264 305.22 295.641)">
<path d="M 495.949 286.477C 495.949 255.252 470.636 229.938 439.411 229.938C 408.185 229.938 382.872 255.252 382.872 286.477C 382.872 317.703 408.185 343.016 439.411 343.016C 470.636 343.016 495.949 317.703 495.949 286.477Z" fill="#333333"></path>
</g>
<g fill="#e6e6e6">
<use x="704.267247" y="583.976455" xlink:href="#g0-87"></use>
<use x="714.928534" y="583.976455" xlink:href="#g0-101"></use>
<use x="720.131192" y="583.976455" xlink:href="#g0-98"></use>
<use x="726.136379" y="583.976455" xlink:href="#g0-98"></use>
<use x="732.141566" y="583.976455" xlink:href="#g0-45"></use>
<use x="736.043559" y="583.976455" xlink:href="#g0-66"></use>
<use x="743.812943" y="583.976455" xlink:href="#g0-101"></use>
<use x="749.015601" y="583.976455" xlink:href="#g0-110"></use>
<use x="755.020788" y="583.976455" xlink:href="#g0-106"></use>
<use x="758.099479" y="583.976455" xlink:href="#g0-97"></use>
<use x="763.703407" y="583.976455" xlink:href="#g0-109"></use>
<use x="772.960255" y="583.976455" xlink:href="#g0-105"></use>
<use x="775.713781" y="583.976455" xlink:href="#g0-110"></use>
</g>
<g transform="matrix(0.996264 0 0 0.996264 305.22 295.641)">
<path d="M 423.429 398.148C 423.429 366.923 398.116 341.61 366.891 341.61C 335.665 341.61 310.352 366.923 310.352 398.148C 310.352 429.374 335.665 454.687 366.891 454.687C 398.116 454.687 423.429 429.374 423.429 398.148Z" fill="#333333"></path>
</g>
<g fill="#e6e6e6">
<use x="650.383055" y="696.392663" xlink:href="#g0-74"></use>
<use x="655.876276" y="696.392663" xlink:href="#g0-105"></use>
<use x="658.629801" y="696.392663" xlink:href="#g0-109"></use>
<use x="671.788642" y="696.392663" xlink:href="#g0-72"></use>
<use x="679.9939" y="696.392663" xlink:href="#g0-97"></use>
<use x="685.597828" y="696.392663" xlink:href="#g0-108"></use>
<use x="688.351353" y="696.392663" xlink:href="#g0-108"></use>
</g>
<g transform="matrix(0.996264 0 0 0.996264 305.22 295.641)">
<path d="M 296.095 437.078C 296.095 405.853 270.782 380.54 239.556 380.54C 208.331 380.54 183.018 405.853 183.018 437.078C 183.018 468.304 208.331 493.617 239.556 493.617C 270.782 493.617 296.095 468.304 296.095 437.078Z" fill="#333333"></path>
</g>
<g fill="#e6e6e6">
<use x="514.453657" y="735.177244" xlink:href="#g0-74"></use>
<use x="519.946878" y="735.177244" xlink:href="#g0-111"></use>
<use x="525.799868" y="735.177244" xlink:href="#g0-115"></use>
<use x="530.287161" y="735.177244" xlink:href="#g0-104"></use>
<use x="540.194341" y="735.177244" xlink:href="#g0-66"></use>
<use x="547.963725" y="735.177244" xlink:href="#g0-101"></use>
<use x="553.166383" y="735.177244" xlink:href="#g0-114"></use>
<use x="557.14448" y="735.177244" xlink:href="#g0-107"></use>
<use x="562.824501" y="735.177244" xlink:href="#g0-117"></use>
<use x="568.829688" y="735.177244" xlink:href="#g0-115"></use>
</g>
<g transform="matrix(0.996264 0 0 0.996264 305.22 295.641)">
<path d="M 173.527 385.052C 173.527 353.826 148.214 328.513 116.989 328.513C 85.7632 328.513 60.45 353.826 60.45 385.052C 60.45 416.277 85.7632 441.59 116.989 441.59C 148.214 441.59 173.527 416.277 173.527 385.052Z" fill="#333333"></path>
</g>
<g fill="#e6e6e6">
<use x="380.088781" y="682.182477" xlink:href="#g0-75"></use>
<use x="388.14874" y="682.182477" xlink:href="#g0-101"></use>
<use x="393.351398" y="682.182477" xlink:href="#g0-118"></use>
<use x="398.706252" y="682.182477" xlink:href="#g0-105"></use>
<use x="401.459778" y="682.182477" xlink:href="#g0-110"></use>
<use x="411.366958" y="682.182477" xlink:href="#g0-80"></use>
<use x="417.835677" y="682.182477" xlink:href="#g0-46"></use>
<use x="424.989332" y="682.182477" xlink:href="#g0-70"></use>
<use x="431.637919" y="682.182477" xlink:href="#g0-108"></use>
<use x="434.391445" y="682.182477" xlink:href="#g0-101"></use>
<use x="439.594103" y="682.182477" xlink:href="#g0-109"></use>
<use x="448.85095" y="682.182477" xlink:href="#g0-105"></use>
<use x="451.604476" y="682.182477" xlink:href="#g0-110"></use>
<use x="457.609663" y="682.182477" xlink:href="#g0-103"></use>
</g>
<g transform="matrix(0.996264 0 0 0.996264 305.22 295.641)">
<path d="M 113.078 266.412C 113.078 235.186 87.7642 209.873 56.5388 209.873C 25.3133 209.873 0 235.186 0 266.412C 0 297.637 25.3133 322.951 56.5388 322.951C 87.7642 322.951 113.078 297.637 113.078 266.412Z" fill="#333333"></path>
</g>
<g fill="#e6e6e6">
<use x="329.40163" y="563.985959" xlink:href="#g0-77"></use>
<use x="339.557884" y="563.985959" xlink:href="#g0-121"></use>
<use x="344.912739" y="563.985959" xlink:href="#g0-114"></use>
<use x="348.890836" y="563.985959" xlink:href="#g0-108"></use>
<use x="351.644362" y="563.985959" xlink:href="#g0-101"></use>
<use x="360.749013" y="563.985959" xlink:href="#g0-75"></use>
<use x="368.808972" y="563.985959" xlink:href="#g0-114"></use>
<use x="372.787069" y="563.985959" xlink:href="#g0-97"></use>
<use x="378.390997" y="563.985959" xlink:href="#g0-110"></use>
<use x="384.396184" y="563.985959" xlink:href="#g0-116"></use>
<use x="388.623343" y="563.985959" xlink:href="#g0-122"></use>
</g>
<g transform="matrix(0.996264 0 0 0.996264 305.22 295.641)">
<path d="M 143.03 136.672C 143.03 105.446 117.717 80.1332 86.4916 80.1332C 55.2661 80.1332 29.9528 105.446 29.9528 136.672C 29.9528 167.897 55.2661 193.211 86.4916 193.211C 117.717 193.211 143.03 167.897 143.03 136.672Z" fill="#333333"></path>
</g>
<g fill="#e6e6e6">
<use x="346.560414" y="435.893156" xlink:href="#g0-82"></use>
<use x="354.094566" y="435.893156" xlink:href="#g0-111"></use>
<use x="359.947556" y="435.893156" xlink:href="#g0-115"></use>
<use x="364.434849" y="435.893156" xlink:href="#g0-115"></use>
<use x="368.922141" y="435.893156" xlink:href="#g0-101"></use>
<use x="374.124799" y="435.893156" xlink:href="#g0-108"></use>
<use x="376.878325" y="435.893156" xlink:href="#g0-108"></use>
<use x="379.63185" y="435.893156" xlink:href="#g0-97"></use>
<use x="389.137772" y="435.893156" xlink:href="#g0-83"></use>
<use x="395.641094" y="435.893156" xlink:href="#g0-98"></use>
<use x="401.646281" y="435.893156" xlink:href="#g0-108"></use>
<use x="404.399806" y="435.893156" xlink:href="#g0-101"></use>
<use x="409.602464" y="435.893156" xlink:href="#g0-110"></use>
<use x="415.607651" y="435.893156" xlink:href="#g0-100"></use>
<use x="421.612838" y="435.893156" xlink:href="#g0-105"></use>
<use x="424.366363" y="435.893156" xlink:href="#g0-100"></use>
<use x="430.37155" y="435.893156" xlink:href="#g0-111"></use>
</g>
<g transform="matrix(0.996264 0 0 0.996264 305.22 295.641)">
<path d="M 249.371 56.5388C 249.371 25.3133 224.057 2.85283e-14 192.832 0C 161.606 -2.85283e-14 136.293 25.3133 136.293 56.5388C 136.293 87.7642 161.606 113.078 192.832 113.078C 224.057 113.078 249.371 87.7642 249.371 56.5388Z" fill="#333333"></path>
</g>
<g fill="#e6e6e6">
<use x="455.559961" y="354.897041" xlink:href="#g0-84"></use>
<use x="462.568317" y="354.897041" xlink:href="#g0-101"></use>
<use x="467.770975" y="354.897041" xlink:href="#g0-116"></use>
<use x="471.998134" y="354.897041" xlink:href="#g0-115"></use>
<use x="476.485427" y="354.897041" xlink:href="#g0-117"></use>
<use x="482.490614" y="354.897041" xlink:href="#g0-121"></use>
<use x="487.520302" y="354.897041" xlink:href="#g0-97"></use>
<use x="497.026224" y="354.897041" xlink:href="#g0-75"></use>
<use x="505.086182" y="354.897041" xlink:href="#g0-105"></use>
<use x="507.839707" y="354.897041" xlink:href="#g0-116"></use>
<use x="512.066867" y="354.897041" xlink:href="#g0-97"></use>
<use x="517.670795" y="354.897041" xlink:href="#g0-104"></use>
<use x="523.675982" y="354.897041" xlink:href="#g0-97"></use>
<use x="529.27991" y="354.897041" xlink:href="#g0-116"></use>
<use x="533.507069" y="354.897041" xlink:href="#g0-97"></use>
</g>
</g>
</svg>